<svg width="12" height="12" viewBox="0 0 12 12" fill="none" xmlns="http://www.w3.org/2000/svg">
<path d="M2.5 4.5L6 8.5L9.5 4.5" stroke="#00003A" stroke-width="1.33333" stroke-linecap="round" stroke-linejoin="round"/>
</svg>
