<svg width="16" height="16" viewBox="0 0 16 16" fill="none" xmlns="http://www.w3.org/2000/svg">
<path d="M4.00016 5.33301L1.3335 7.99968L4.00016 10.6663" stroke="#2DC7FF" stroke-width="1.33333" stroke-linecap="round" stroke-linejoin="round"/>
<path d="M12 10.6663L14.6667 7.99968L12 5.33301" stroke="#2DC7FF" stroke-width="1.33333" stroke-linecap="round" stroke-linejoin="round"/>
<path d="M10 0.666504L6 15.3332" stroke="#2DC7FF" stroke-width="1.33333" stroke-linecap="round" stroke-linejoin="round"/>
</svg>
