<svg width="16" height="16" viewBox="0 0 16 16" fill="none" xmlns="http://www.w3.org/2000/svg">
<path d="M0.666504 0.666504H7.99984" stroke="#FF7D00" stroke-width="1.33333" stroke-linecap="round" stroke-linejoin="round"/>
<path d="M0.666504 4H7.99984" stroke="#FF7D00" stroke-width="1.33333" stroke-linecap="round" stroke-linejoin="round"/>
<path d="M0.666504 7.33301H7.99984" stroke="#FF7D00" stroke-width="1.33333" stroke-linecap="round" stroke-linejoin="round"/>
<path d="M6.6665 11.9997L10.6665 14.6663L15.3332 7.33301" stroke="#FF7D00" stroke-width="1.33333" stroke-linecap="round" stroke-linejoin="round"/>
</svg>
